[
  {
    "public_metrics": {"retweet_count": 4, "reply_count": 0, "like_count": 20, "quote_count": 0, "bookmark_count": 0, "impression_count": 2162},
    "referenced_tweets": [
      {"type": "quoted", "id": "1444444444444444444"}
    ],
    "text": "text. https://t.co/url",
    "edit_history_tweet_ids": ["1111111111111111111"],
    "id": "1111111111111111111",
    "entities": {"urls": [{"start": 273, "end": 296, "url": "https://t.co/url", "expanded_url": "https://twitter.com/url", "display_url": "twitter.com/url\u2026"}]},
    "lang": "en",
    "possibly_sensitive": false,
    "conversation_id": "1333333333333333333",
    "author_id": "12222222",
    "created_at": "2023-01-1T19:18:49.000Z",
    "context_annotations": [
      {"domain": {"id": "10", "name": "Person", "description": "Named people in the world like Nelson Mandela"}, "entity": {"id": "981179160784617472", "name": "Garret Graves", "description": "US Representative Garret Graves (LA-06)"}},
      {"domain": {"id": "35", "name": "Politician", "description": "Politicians in the world, like Joe Biden"}, "entity": {"id": "981179160784617472", "name": "Garret Graves", "description": "US Representative Garret Graves (LA-06)"}},
      {"domain": {"id": "131", "name": "Unified Twitter Taxonomy", "description": "A taxonomy of user interests. "}, "entity": {"id": "847878884917886977", "name": "Politics", "description": "Politics"}},
      {"domain": {"id": "131", "name": "Unified Twitter Taxonomy", "description": "A taxonomy of user interests. "}, "entity": {"id": "981179160784617472", "name": "Garret Graves", "description": "US Representative Garret Graves (LA-06)"}},
      {"domain": {"id": "131", "name": "Unified Twitter Taxonomy", "description": "A taxonomy of user interests. "}, "entity": {"id": "1070032753834438656", "name": "Political figures", "description": "Politician"}}
    ],
    "coordinates": [],
    "place": {"id": "07d9db48bc083000", "name": "Louisiana"}
  },
  {
    "public_metrics": {"retweet_count": 4, "reply_count": 1, "like_count": 20, "quote_count": 0, "bookmark_count": 0, "impression_count": 2162},
    "text": "text. https://t.co/url",
    "edit_history_tweet_ids": ["1111111111111111112"],
    "id": "1111111111111111112",
    "lang": "en",
    "in_reply_to_user_id": "13333333",
    "possibly_sensitive": false,
    "conversation_id": "1333333333333333333",
    "author_id": "12222222",
    "created_at": "2023-01-1T01:01:01.000Z",
  }
]
