[
  {
    "id": "1234567890000000000",
    "text": "This is old data and should not be seen",
    "createTime": 1710084626,
    "createTimeISO": "2024-03-10T15:30:26.000Z",
    "isAd": false,
    "isMuted": false,
    "authorMeta": {
      "id": "1111111111111111111",
      "name": "yanatheartist",
      "nickName": "YANAtheartist🇭🇹🫶🏿🇨🇩🇸🇩",
      "verified": false,
      "signature": "🇭🇹 Artist & Activist & Humanitarian \n(72 hr response time to dms)",
      "bioLink": "https://linktr.ee/YANAtheartist",
      "avatar": "https://p19-pu-sign-useast8.tiktokcdn-us.com/tos-useast5-avt-0068-tx/7311000347936292910~c5_720x720.jpeg?lk3s=a5d48078&x-expires=1710302400&x-signature=aWbPhHDZfG3TPNTY24mgNjpWri8%3D",
      "commerceUserInfo": {
        "commerceUser": false
      },
      "privateAccount": false,
      "region": "US",
      "roomId": "",
      "ttSeller": false,
      "following": 1934,
      "friends": 415,
      "fans": 60800,
      "heart": 2700000,
      "video": 1822,
      "digg": 0
    },
    "musicMeta": {
      "musicName": "Beautiful Flowers",
      "musicAuthor": "Lofi Boss",
      "musicOriginal": false,
      "musicAlbum": "Beautiful Flowers",
      "playUrl": "https://sf16-ies-music-sg.tiktokcdn.com/obj/tos-alisg-ve-2774/a5bf29c5d2c44839aa4f7359ce77d2d4",
      "coverMediumUrl": "https://p16-sg.tiktokcdn.com/aweme/200x200/tos-alisg-v-2774/e9a5de58abf743a8b28c592b941318e8.jpeg",
      "musicId": "6966734030620346369"
    },
    "webVideoUrl": "https://www.tiktok.com/@yanatheartist/video/7344757393005268267",
    "mediaUrls": [
      "https://v16-webapp-prime.us.tiktok.com/video/tos/useast5/tos-useast5-ve-0068c002-tx/ooABQhYtxVyEfAwC2rBuBITkp90IijiwFOcCNO/?a=1988&ch=0&cr=3&dr=0&lr=unwatermarked&cd=0%7C0%7C0%7C&cv=1&br=2276&bt=1138&bti=NDU3ZjAwOg%3D%3D&cs=0&ds=6&ft=4KJMyMzm8Zmo0~13L94jVbXrdpWrKsd.&mime_type=video_mp4&qs=0&rc=ZWY1PGc8ZGZmOzc2NTU2PEBpanJqbXA5cjx3cTMzZzczNEBjYDY0Y14tXjExLS4wMC1fYSMzL2deMmRzMGpgLS1kMS9zcw%3D%3D&btag=e00088000&expire=1710302868&l=202403110407330B17278EE0043D683176&ply_type=2&policy=2&signature=5296f33cd4468b4a2ab30f00e9cf8c3d&tk=tt_chain_token"
    ],
    "videoMeta": {
      "height": 1024,
      "width": 576,
      "duration": 15,
      "coverUrl": "https://p16-sign.tiktokcdn-us.com/obj/tos-useast5-p-0068-tx/f389b249c15d4aff927190ad59a32c90_1710084628?x-expires=1710302400&x-signature=xbg%2FfELRsoWYuy7REeMu9cgWSqk%3D",
      "originalCoverUrl": "https://p16-sign.tiktokcdn-us.com/obj/tos-useast5-p-0068-tx/f389b249c15d4aff927190ad59a32c90_1710084628?x-expires=1710302400&x-signature=xbg%2FfELRsoWYuy7REeMu9cgWSqk%3D",
      "definition": "540p",
      "format": "mp4",
      "originalDownloadAddr": "https://v16-webapp-prime.us.tiktok.com/video/tos/useast5/tos-useast5-ve-0068c002-tx/ooABQhYtxVyEfAwC2rBuBITkp90IijiwFOcCNO/?a=1988&ch=0&cr=3&dr=0&lr=unwatermarked&cd=0%7C0%7C0%7C&cv=1&br=2276&bt=1138&bti=NDU3ZjAwOg%3D%3D&cs=0&ds=6&ft=4KJMyMzm8Zmo0~13L94jVbXrdpWrKsd.&mime_type=video_mp4&qs=0&rc=ZWY1PGc8ZGZmOzc2NTU2PEBpanJqbXA5cjx3cTMzZzczNEBjYDY0Y14tXjExLS4wMC1fYSMzL2deMmRzMGpgLS1kMS9zcw%3D%3D&btag=e00088000&expire=1710302868&l=202403110407330B17278EE0043D683176&ply_type=2&policy=2&signature=5296f33cd4468b4a2ab30f00e9cf8c3d&tk=tt_chain_token",
      "downloadAddr": "https://v16-webapp-prime.us.tiktok.com/video/tos/useast5/tos-useast5-ve-0068c002-tx/ooABQhYtxVyEfAwC2rBuBITkp90IijiwFOcCNO/?a=1988&ch=0&cr=3&dr=0&lr=unwatermarked&cd=0%7C0%7C0%7C&cv=1&br=2276&bt=1138&bti=NDU3ZjAwOg%3D%3D&cs=0&ds=6&ft=4KJMyMzm8Zmo0~13L94jVbXrdpWrKsd.&mime_type=video_mp4&qs=0&rc=ZWY1PGc8ZGZmOzc2NTU2PEBpanJqbXA5cjx3cTMzZzczNEBjYDY0Y14tXjExLS4wMC1fYSMzL2deMmRzMGpgLS1kMS9zcw%3D%3D&btag=e00088000&expire=1710302868&l=202403110407330B17278EE0043D683176&ply_type=2&policy=2&signature=5296f33cd4468b4a2ab30f00e9cf8c3d&tk=tt_chain_token"
    },
    "diggCount": 0,
    "shareCount": 0,
    "playCount": 0,
    "collectCount": 0,
    "commentCount": 0,
    "mentions": [],
    "hashtags": [
      {
        "id": "44969917",
        "name": "goviralgo",
        "title": "",
        "cover": ""
      },
      {
        "id": "384630",
        "name": "beautyhacks",
        "title": "Submit your educational videos and win up to RM6700*! For more info: https://vt.tiktok.com/ZSR9PEu2y/",
        "cover": "https://p16-sg.tiktokcdn.com/obj/tiktok-obj/6aad6f8dd4e8ea0bf0006efdaf5f6dd7.jpeg"
      },
      {
        "id": "3878654",
        "name": "hudabeauty",
        "title": "",
        "cover": ""
      }
    ],
    "isSlideshow": false,
    "isPinned": false
  },
  {
    "id": "9876543210000000000",
    "text": "Please use the filter. And this sound. Or send gifts directly to focuscongo.com (@Pappy Orion) or @Friends of the Congo #goviralgo #newtrend #viral ",
    "createTime": 1710031079,
    "createTimeISO": "2024-03-10T00:37:59.000Z",
    "isAd": false,
    "isMuted": false,
    "authorMeta": {
      "id": "1111111111111111111",
      "name": "yanatheartist",
      "nickName": "YANAtheartist🇭🇹🫶🏿🇨🇩🇸🇩",
      "verified": false,
      "signature": "🇭🇹 Artist & Activist & Humanitarian \n(72 hr response time to dms)",
      "bioLink": "https://linktr.ee/YANAtheartist",
      "avatar": "https://p19-pu-sign-useast8.tiktokcdn-us.com/tos-useast5-avt-0068-tx/7311000347936292910~c5_720x720.jpeg?lk3s=a5d48078&x-expires=1710302400&x-signature=aWbPhHDZfG3TPNTY24mgNjpWri8%3D",
      "commerceUserInfo": {
        "commerceUser": false
      },
      "privateAccount": false,
      "region": "US",
      "roomId": "",
      "ttSeller": false,
      "following": 1934,
      "friends": 415,
      "fans": 60800,
      "heart": 2700000,
      "video": 1822,
      "digg": 0
    },
    "musicMeta": {
      "musicName": "Road",
      "musicAuthor": "Kentrello",
      "musicOriginal": false,
      "musicAlbum": "RELLO",
      "playUrl": "https://sf16-ies-music-sg.tiktokcdn.com/obj/tos-alisg-ve-2774/26f4f59637bb48ffb80cefa2f5c81c3e",
      "coverMediumUrl": "https://p16-sg.tiktokcdn.com/aweme/200x200/tos-alisg-v-2774/f404d34dc95848e7955962db828e7126.jpeg",
      "musicId": "7021484531249072129"
    },
    "webVideoUrl": "https://www.tiktok.com/@yanatheartist/video/7344527455798988074",
    "mediaUrls": [
      "https://v16-webapp-prime.us.tiktok.com/video/tos/useast5/tos-useast5-pve-0068-tx/okkoONw04iTu9wwyAsFOEAItfACjMABpjB2I9i/?a=1988&ch=0&cr=3&dr=0&lr=unwatermarked&cd=0%7C0%7C0%7C&cv=1&br=390&bt=195&bti=NDU3ZjAwOg%3D%3D&cs=0&ds=6&ft=4KJMyMzm8Zmo0~13L94jVbXrdpWrKsd.&mime_type=video_mp4&qs=0&rc=OTdoaTo6Nzc1NGg4aGk5N0BpMzYzdnA5cmxqcTMzZzczNEAvMy5gX2EuNi8xMF41YV5iYSNqbzRyMmRjLWpgLS1kMS9zcw%3D%3D&btag=e00088000&expire=1710302868&l=202403110407330B17278EE0043D683176&ply_type=2&policy=2&signature=aae6a26ef6f3f0cb24ce16a51c31a7a9&tk=tt_chain_token"
    ],
    "videoMeta": {
      "height": 1024,
      "width": 576,
      "duration": 15,
      "coverUrl": "https://p16-sign.tiktokcdn-us.com/obj/tos-useast5-p-0068-tx/oEgI2fL2OQGfTbCACwdAeDI3Lagxj5gHk9cgAC?x-expires=1710302400&x-signature=ytQGL0lsYtinFSke4%2FvDfSJtHDI%3D",
      "originalCoverUrl": "https://p16-sign.tiktokcdn-us.com/obj/tos-useast5-p-0068-tx/oEgI2fL2OQGfTbCACwdAeDI3Lagxj5gHk9cgAC?x-expires=1710302400&x-signature=ytQGL0lsYtinFSke4%2FvDfSJtHDI%3D",
      "definition": "540p",
      "format": "mp4",
      "originalDownloadAddr": "https://v16-webapp-prime.us.tiktok.com/video/tos/useast5/tos-useast5-pve-0068-tx/okkoONw04iTu9wwyAsFOEAItfACjMABpjB2I9i/?a=1988&ch=0&cr=3&dr=0&lr=unwatermarked&cd=0%7C0%7C0%7C&cv=1&br=390&bt=195&bti=NDU3ZjAwOg%3D%3D&cs=0&ds=6&ft=4KJMyMzm8Zmo0~13L94jVbXrdpWrKsd.&mime_type=video_mp4&qs=0&rc=OTdoaTo6Nzc1NGg4aGk5N0BpMzYzdnA5cmxqcTMzZzczNEAvMy5gX2EuNi8xMF41YV5iYSNqbzRyMmRjLWpgLS1kMS9zcw%3D%3D&btag=e00088000&expire=1710302868&l=202403110407330B17278EE0043D683176&ply_type=2&policy=2&signature=aae6a26ef6f3f0cb24ce16a51c31a7a9&tk=tt_chain_token",
      "downloadAddr": "https://v16-webapp-prime.us.tiktok.com/video/tos/useast5/tos-useast5-pve-0068-tx/okkoONw04iTu9wwyAsFOEAItfACjMABpjB2I9i/?a=1988&ch=0&cr=3&dr=0&lr=unwatermarked&cd=0%7C0%7C0%7C&cv=1&br=390&bt=195&bti=NDU3ZjAwOg%3D%3D&cs=0&ds=6&ft=4KJMyMzm8Zmo0~13L94jVbXrdpWrKsd.&mime_type=video_mp4&qs=0&rc=OTdoaTo6Nzc1NGg4aGk5N0BpMzYzdnA5cmxqcTMzZzczNEAvMy5gX2EuNi8xMF41YV5iYSNqbzRyMmRjLWpgLS1kMS9zcw%3D%3D&btag=e00088000&expire=1710302868&l=202403110407330B17278EE0043D683176&ply_type=2&policy=2&signature=aae6a26ef6f3f0cb24ce16a51c31a7a9&tk=tt_chain_token"
    },
    "diggCount": 51500,
    "shareCount": 2567,
    "playCount": 761200,
    "collectCount": 2750,
    "commentCount": 713,
    "mentions": [
      "@Pappy",
      "@Friends"
    ],
    "hashtags": [
      {
        "id": "",
        "name": ""
      },
      {
        "id": "",
        "name": ""
      },
      {
        "id": "44969917",
        "name": "goviralgo",
        "title": "",
        "cover": ""
      },
      {
        "id": "104479",
        "name": "newtrend",
        "title": "",
        "cover": ""
      },
      {
        "id": "20884",
        "name": "viral",
        "title": "¡descubre las canciones en tendencia! 🔥➡️ https://bit.ly/TendenciasTikTok_LATAM",
        "cover": "https://p16-amd-va.tiktokcdn.com/obj/musically-maliva-obj/8e4d8102460a60717c89acc2d6367a16.png"
      }
    ],
    "effectStickers": [
      {
        "ID": "144620284",
        "name": "FILTER FOR GOOD II",
        "stickerStats": {
          "useCount": 0
        }
      }
    ],
    "isSlideshow": false,
    "isPinned": false
  },
  {}
]
